180 177.3035 CreateWindow 
180 185.1115 CreateWindow 
180 237.7197 Move 
180 240.9005 Move 
180 243.4567 Move 
180 247.1059 Move 
180 252.5676 Move 
180 258.5608 Move 
180 263.7869 Select
180 265.1746 Move 
180 273.7429 Select
180 274.3601 Select
180 275.4633 Select
180 280.7112 Select
180 280.9562 Select
180 282.2323 BatchMoveSelection
180 286.9513 Move 
180 295.9494 Move 
180 309.4056 Move 
180 328.787 Move 
180 356.974 Move 
180 366.3213 Move 
180 382.6671 Relayout 
180 389.1641 Move 
180 395.7467 Move 
180 409.3823 Move 
180 451.79 CreateWindow 
180 474.8672 DestroyWindow 
180 487.4114 Move 
180 491.2076 Move 
180 511.0623 Move 
180 535.4963 Move 
180 563.8268 Select
180 565.5827 Select
180 570.8105 BatchMoveSelection
180 610.9637 Move 
180 625.163 Move 
180 665.5761 Move 
180 673.0999 Move 
180 710.2203 Move 
180 714.3621 Move 
180 730.8779 Move 
180 738.2961 Move 
180 746.0909 Move 
180 785.0421 Move 
180 796.8524 Relayout 
180 809.8501 Move 
180 823.7935 Move 
180 827.4691 Move 
180 831.9025 Move 
180 834.1066 Move 
180 836.817 Move 
180 838.7877 Move 
180 843.1018 Move 
180 846.3074 Select
180 847.6931 BatchMoveSelection
180 852.2719 Move 
180 857.0697 Move 
180 894.1082 Move 
180 920.6633 Move 
180 945.0562 Move 
180 952.5634 Relayout 
180 1005.637 Move 
180 1014.003 Move 
180 1052.041 Move 
180 1056.009 Move 
180 1062.085 Move 
180 1066.64 Move 
180 1075.391 Move 
180 1092.261 Relayout 
180 1153.516 Move 
180 1215.099 Select

