116 147.6455 Select
116 178.9149 Select
116 181.5251 BatchMoveSelection
116 191.3789 Select
116 192.3911 BatchMoveSelection
116 199.9384 Select
116 204.806 BatchMoveSelection
116 214.2433 Select
116 215.4631 Select
116 219.2809 Move 
116 225.7779 Select
116 230.523 Move 
116 239.0349 BatchMoveSelection
116 245.7657 Move 
116 250.5097 Select
116 251.8357 BatchMoveSelection
116 263.3851 Select
116 264.2683 BatchMoveSelection
116 277.4031 Move 
116 282.7574 Move 
116 289.9998 Move 
116 317.7531 Move 
116 322.3247 Move 
116 336.101 Move 
116 347.0651 Move 
116 381.8511 Select
116 382.7489 BatchMoveSelection
116 397.2841 Select
116 398.0268 BatchMoveSelection
116 404.2238 Select
116 405.0346 BatchMoveSelection
116 410.1674 Move 
116 412.2648 Move 
116 453.4827 Select
116 494.069 Select
116 494.79 BatchMoveSelection
116 499.1447 Select
116 499.8134 Move 
116 504.4629 Move 
116 511.773 Select
116 521.7119 BatchMoveSelection
116 527.6888 Select
116 532.4573 BatchMoveSelection
116 538.3866 Select
116 539.2079 BatchMoveSelection
116 541.8699 Select
116 542.6689 BatchMoveSelection
116 545.5738 Select
116 546.2448 BatchMoveSelection
116 549.1857 Select
116 550.4003 BatchMoveSelection
116 564.1951 Select
116 571.4382 BatchMoveSelection
116 576.8452 Move 
116 582.1649 Select
116 583.0053 Select
116 607.7072 Select
116 609.8203 BatchMoveSelection
116 635.3248 Select
116 637.4358 BatchMoveSelection

