116 86.24493 Move 
116 90.19737 Move 
116 94.09607 Move 
116 104.3058 Move 
116 112.606 Move 
116 117.4448 Move 
116 121.8245 Relayout 
116 130.6727 Move 
116 141.6331 Move 
116 157.2755 Move 
116 166.6095 Move 
116 178.596 Move 
116 181.2541 Relayout 
116 187.8672 Move 
116 191.448 Move 
116 195.8572 Relayout 
116 223.914 Move 
116 262.3483 Move 

