180 255.0101 Move 
180 265.3641 Move 
180 267.1107 Move 
180 269.1778 Move 
180 272.0599 Move 
180 274.9799 Move 
180 276.4378 Move 
180 278.2983 Move 
180 289.2111 Move 
180 291.6552 Move 
180 295.5541 Move 
180 301.3967 Move 
180 303.4773 Move 
180 306.8576 Move 
180 311.7777 Move 
180 314.5549 Move 
180 317.7414 Move 
180 321.4507 Move 
180 336.2528 Move 
180 341.2899 Move 
180 345.5988 Move 
180 363.777 Select
180 364.6149 Select
180 364.6736 Select
180 364.9957 Select
180 366.0017 BatchMoveSelection
180 371.0144 Move 
180 402.5613 Move 
180 408.0889 Move 
180 420.2321 Move 
180 442.2783 Move 
180 452.5427 Move 

