116 248.7598 Move 
116 251.9001 Move 
116 256.2516 Move 
116 259.3012 Move 
116 261.2618 Move 
116 264.9438 Move 
116 269.0394 Move 
116 274.3546 Move 
116 279.6073 Move 
116 283.217 Move 
116 286.42 Move 
116 289.2046 Move 
116 292.154 Move 
116 296.0295 Move 
116 300.9138 Move 
116 305.2529 Move 
116 311.1817 Move 
116 314.9575 Move 
116 327.1717 Move 
116 332.0822 Move 
116 365.1281 Move 
116 388.1024 Move 
116 409.6419 Move 
116 416.5142 Move 
116 428.4482 Move 
116 453.5807 Move 
116 467.1271 Select
116 486.892 Move 
116 503.0392 Select

