%YAML 1.1
%TAG !u! tag:unity3d.com,2011:
--- !u!114 &11400000
MonoBehaviour:
  m_ObjectHideFlags: 0
  m_CorrespondingSourceObject: {fileID: 0}
  m_PrefabInstance: {fileID: 0}
  m_PrefabAsset: {fileID: 0}
  m_GameObject: {fileID: 0}
  m_Enabled: 1
  m_EditorHideFlags: 0
  m_Script: {fileID: 11500000, guid: d1a15d870c8b4e52acc4643bd258ed6e, type: 3}
  m_Name: CustomHL1InputActions
  m_EditorClassIdentifier: 
  isCustomProfile: 1
  inputActions:
  - id: 1
    description: Select
    axisConstraint: 2
  - id: 2
    description: Menu
    axisConstraint: 2
  - id: 3
    description: Grip Pose
    axisConstraint: 7
  - id: 4
    description: Pointer Pose
    axisConstraint: 7
  - id: 5
    description: Teleport Direction
    axisConstraint: 4
  - id: 6
    description: Trigger
    axisConstraint: 3
  - id: 7
    description: Grip Press
    axisConstraint: 3
  - id: 8
    description: Hold Action
    axisConstraint: 0
  - id: 9
    description: Manipulate Action
    axisConstraint: 0
  - id: 10
    description: Navigation Action
    axisConstraint: 0
  - id: 11
    description: Scroll
    axisConstraint: 4
  - id: 12
    description: Mouse Delta
    axisConstraint: 4
  - id: 13
    description: Index Finger Pose
    axisConstraint: 7
  - id: 14
    description: Toggle Diagnostics
    axisConstraint: 0
  - id: 15
    description: Toggle Profiler
    axisConstraint: 0
