180 137.1711 Move 
180 150.5556 Move 
180 155.5484 Move 
180 157.8611 Move 
180 162.3313 Move 
180 165.3106 Move 
180 169.0027 Move 
180 172.9473 Move 
180 175.6425 Move 
180 187.7646 Move 
180 223.5996 Move 
180 297.4979 Move 
180 305.9656 Move 
180 311.9048 Move 
180 315.8384 Move 
180 319.2011 Move 
180 323.6408 Move 
180 327.9595 Move 
180 335.3141 Move 
180 348.4142 Move 
180 356.4172 Move 
180 360.9246 Move 
180 366.8955 Move 
180 377.0659 Move 
180 381.9283 Move 
180 388.925 Move 
180 393.7975 Move 
180 406.1203 Move 
180 413.3262 Select
180 413.3863 Select
180 413.4159 Select
180 413.6676 Select
180 413.7604 Select
180 413.9418 Select
180 414.2213 Select
180 415.5278 BatchMoveSelection
180 421.602 Move 
180 424.8794 Select
180 424.9826 Select
180 425.0871 Select
180 426.6108 Move 
180 429.1791 BatchMoveSelection
180 431.5725 Move 
180 434.5181 Move 
180 436.8978 Move 
180 441.0115 Move 
180 444.6068 Move 
180 448.0003 Select
180 448.9322 BatchMoveSelection
180 463.8958 Move 
180 467.5257 Move 
180 474.7957 Move 
180 501.9138 Move 
180 513.6708 Move 
180 532.0424 Move 
180 561.0126 Move 
180 568.0832 Move 
180 569.8481 Move 

