180 122.9565 Select
180 127.7211 Select
180 129.2078 Select
180 134.523 Select
180 136.1465 Select
180 139.2623 Select
180 142.7062 Select
180 146.1114 Select
180 154.3651 EmptySelection 
180 163.6356 ExpandPersonalSpace 
180 163.6356 CreateWindow 
180 183.5819 Select
180 184.9113 Select
180 185.9391 Select
180 191.7483 Select
180 193.3287 Select
180 194.7823 Select
180 196.1892 Select
180 197.8683 Select
180 199.4352 Select
180 388.0151 BatchMoveSelection
180 427.422 Select
180 428.5181 Move 
180 430.1601 Select
180 430.7803 Select
180 431.7179 Select
180 433.7825 Select
180 443.5769 BatchMoveSelection
180 457.2525 Select
180 458.6636 Select
180 461.3938 Select
180 464.4332 Select
180 466.6676 Select
180 470.5578 BatchMoveSelection
180 487.8715 Select
180 488.748 Select
180 491.4911 Select
180 493.5564 Select
180 494.6146 Select
180 497.3712 BatchMoveSelection
180 505.2283 Select
180 509.1094 Select
180 511.7796 BatchMoveSelection
180 515.9789 Select
180 516.8563 Select
180 520.8975 BatchMoveSelection
180 528.4956 Select
180 531.6719 Select
180 532.6974 Select
180 533.743 Select
180 537.3043 BatchMoveSelection
180 551.7622 Select
180 556.564 Select
180 566.2352 Select
180 575.808 Select
180 578.3882 BatchMoveSelection
180 584.3598 Select
180 587.1091 BatchMoveSelection

