116 234.7291 Select
116 243.3398 BatchMoveSelection
116 245.9162 Select
116 387.6407 Select
116 393.3504 Select
116 426.6415 Select
116 439.4673 Select
116 470.1889 Select
116 501.423 Select
116 523.2402 Select
116 525.1646 Select
116 526.0114 Select
116 531.3793 Select
116 552.3952 Select
116 553.0684 BatchMoveSelection
116 555.8985 Select
116 559.5396 Move 
116 569.5171 Move 
116 590.7424 Move 
116 597.5309 Select
116 605.6908 Move 
116 618.1787 Select
116 639.7603 Move 
116 643.4589 Select
116 651.4009 Move 
116 671.4742 Select
116 672.3956 BatchMoveSelection
116 677.8898 Select
116 678.7509 BatchMoveSelection
116 683.0357 Select
116 683.1667 Select
116 683.6229 Select
116 685.1368 Select
116 686.3763 BatchMoveSelection
116 697.5638 Move 
116 700.3471 Move 
116 703.9188 Move 
116 707.2974 Move 
116 715.6656 Move 
116 719.2332 Move 
116 724.0935 Move 
116 734.9447 Move 
116 740.3124 Move 

