%YAML 1.1
%TAG !u! tag:unity3d.com,2011:
--- !u!212 &2045656367014592846
SpriteRenderer:
  m_ObjectHideFlags: 0
  m_CorrespondingSourceObject: {fileID: 0}
  m_PrefabInstance: {fileID: 0}
  m_PrefabAsset: {fileID: 0}
  m_GameObject: {fileID: 8320251449686804053}
  m_Enabled: 1
  m_CastShadows: 0
  m_ReceiveShadows: 0
  m_DynamicOccludee: 1
  m_MotionVectors: 1
  m_LightProbeUsage: 1
  m_ReflectionProbeUsage: 1
  m_RenderingLayerMask: 1
  m_RendererPriority: 0
  m_Materials:
  - {fileID: 10754, guid: 0000000000000000f000000000000000, type: 0}
  m_StaticBatchInfo:
    firstSubMesh: 0
    subMeshCount: 0
  m_StaticBatchRoot: {fileID: 0}
  m_ProbeAnchor: {fileID: 0}
  m_LightProbeVolumeOverride: {fileID: 0}
  m_ScaleInLightmap: 1
  m_PreserveUVs: 0
  m_IgnoreNormalsForChartDetection: 0
  m_ImportantGI: 0
  m_StitchLightmapSeams: 0
  m_SelectedEditorRenderState: 0
  m_MinimumChartSize: 4
  m_AutoUVMaxDistance: 0.5
  m_AutoUVMaxAngle: 89
  m_LightmapParameters: {fileID: 0}
  m_SortingLayerID: 0
  m_SortingLayer: 0
  m_SortingOrder: 0
  m_Sprite: {fileID: 21300000, guid: c0475b3978b48c64188a42adceac9408, type: 3}
  m_Color: {r: 1, g: 1, b: 1, a: 1}
  m_FlipX: 0
  m_FlipY: 0
  m_DrawMode: 0
  m_Size: {x: 17.279999, y: 23.039999}
  m_AdaptiveModeThreshold: 0.5
  m_SpriteTileMode: 0
  m_WasSpriteAssigned: 1
  m_MaskInteraction: 0
  m_SpriteSortPoint: 0
--- !u!1001 &3290490037115858579
PrefabInstance:
  m_ObjectHideFlags: 0
  serializedVersion: 2
  m_Modification:
    m_TransformParent: {fileID: 0}
    m_Modifications:
    - target: {fileID: 3609900302553371515, guid: 3cb1140fdf2170247a0fc26b72421723,
        type: 3}
      propertyPath: audio
      value: 
      objectReference: {fileID: 8320251448627737360}
    - target: {fileID: 3609900302553371515, guid: 3cb1140fdf2170247a0fc26b72421723,
        type: 3}
      propertyPath: PressClip
      value: 
      objectReference: {fileID: 8300000, guid: 3448d870fb0a1b24ab44f20f2e1f982d, type: 3}
    - target: {fileID: 3609900302553371515, guid: 3cb1140fdf2170247a0fc26b72421723,
        type: 3}
      propertyPath: icons
      value: 1
      objectReference: {fileID: 0}
    - target: {fileID: 3609900302553371515, guid: 3cb1140fdf2170247a0fc26b72421723,
        type: 3}
      propertyPath: hostTransform
      value: 
      objectReference: {fileID: 8320251448627737361}
    - target: {fileID: 3609900302553371515, guid: 3cb1140fdf2170247a0fc26b72421723,
        type: 3}
      propertyPath: MoveCard
      value: 
      objectReference: {fileID: 2100000, guid: 9c31520ee53a8e646b0264d4320e44dc, type: 2}
    - target: {fileID: 3609900302553371515, guid: 3cb1140fdf2170247a0fc26b72421723,
        type: 3}
      propertyPath: MoveCardToPersonal
      value: 
      objectReference: {fileID: 2100000, guid: c752a93734a3e9143894b3cd07811eb9, type: 2}
    - target: {fileID: 3609900302553371515, guid: 3cb1140fdf2170247a0fc26b72421723,
        type: 3}
      propertyPath: MovePersonalCardsToWindow
      value: 
      objectReference: {fileID: 2100000, guid: ae6f13b8c1a23074bb8ddd277f4e27a8, type: 2}
    - target: {fileID: 3609900302553371515, guid: 3cb1140fdf2170247a0fc26b72421723,
        type: 3}
      propertyPath: MoveWindowCardsToPersonal
      value: 
      objectReference: {fileID: 2100000, guid: 04f2bfccbc8c789429efc301865f08e4, type: 2}
    - target: {fileID: 3609900302553371515, guid: 3cb1140fdf2170247a0fc26b72421723,
        type: 3}
      propertyPath: ExpandPersonalCardsToWindow
      value: 
      objectReference: {fileID: 2100000, guid: f32e4279ff80fc9478b576a95b6fad3a, type: 2}
    - target: {fileID: 3609900302553371515, guid: 3cb1140fdf2170247a0fc26b72421723,
        type: 3}
      propertyPath: MoveWindowCards
      value: 
      objectReference: {fileID: 2100000, guid: e625b0fabbb655e47b81ed2ef8479b9f, type: 2}
    - target: {fileID: 3609900302553371515, guid: 3cb1140fdf2170247a0fc26b72421723,
        type: 3}
      propertyPath: SelectCard
      value: 
      objectReference: {fileID: 2100000, guid: 84db1c9988e752d4ebbdc1d4975493ad, type: 2}
    - target: {fileID: 3609900302553371515, guid: 3cb1140fdf2170247a0fc26b72421723,
        type: 3}
      propertyPath: UnSelectCard
      value: 
      objectReference: {fileID: 2100000, guid: 4e6fa75f9f902b247aa5a9c7396da1f9, type: 2}
    - target: {fileID: 3609900302553371515, guid: 3cb1140fdf2170247a0fc26b72421723,
        type: 3}
      propertyPath: MoveSelection
      value: 
      objectReference: {fileID: 2100000, guid: 02b2bf81beb6fe948b01661f19b99cf6, type: 2}
    - target: {fileID: 3609900302553371515, guid: 3cb1140fdf2170247a0fc26b72421723,
        type: 3}
      propertyPath: MoveSelectionToPersonal
      value: 
      objectReference: {fileID: 2100000, guid: fe3401e6f1665b8448266b020d7c5086, type: 2}
    - target: {fileID: 6835712018671102149, guid: 3cb1140fdf2170247a0fc26b72421723,
        type: 3}
      propertyPath: m_Size.x
      value: 4.49
      objectReference: {fileID: 0}
    - target: {fileID: 6835712018671102149, guid: 3cb1140fdf2170247a0fc26b72421723,
        type: 3}
      propertyPath: m_Size.y
      value: 3.65
      objectReference: {fileID: 0}
    - target: {fileID: 6835712018671102151, guid: 3cb1140fdf2170247a0fc26b72421723,
        type: 3}
      propertyPath: m_LocalScale.x
      value: 0.2
      objectReference: {fileID: 0}
    - target: {fileID: 6835712018671102151, guid: 3cb1140fdf2170247a0fc26b72421723,
        type: 3}
      propertyPath: m_LocalScale.y
      value: 0.2
      objectReference: {fileID: 0}
    - target: {fileID: 6835712019717561730, guid: 3cb1140fdf2170247a0fc26b72421723,
        type: 3}
      propertyPath: m_LocalPosition.x
      value: 0.341
      objectReference: {fileID: 0}
    - target: {fileID: 6835712019717561730, guid: 3cb1140fdf2170247a0fc26b72421723,
        type: 3}
      propertyPath: m_LocalPosition.y
      value: -0.063
      objectReference: {fileID: 0}
    - target: {fileID: 6835712019717561730, guid: 3cb1140fdf2170247a0fc26b72421723,
        type: 3}
      propertyPath: m_LocalPosition.z
      value: 0
      objectReference: {fileID: 0}
    - target: {fileID: 6835712019717561730, guid: 3cb1140fdf2170247a0fc26b72421723,
        type: 3}
      propertyPath: m_LocalRotation.x
      value: 0
      objectReference: {fileID: 0}
    - target: {fileID: 6835712019717561730, guid: 3cb1140fdf2170247a0fc26b72421723,
        type: 3}
      propertyPath: m_LocalRotation.y
      value: 0
      objectReference: {fileID: 0}
    - target: {fileID: 6835712019717561730, guid: 3cb1140fdf2170247a0fc26b72421723,
        type: 3}
      propertyPath: m_LocalRotation.z
      value: 0
      objectReference: {fileID: 0}
    - target: {fileID: 6835712019717561730, guid: 3cb1140fdf2170247a0fc26b72421723,
        type: 3}
      propertyPath: m_LocalRotation.w
      value: 1
      objectReference: {fileID: 0}
    - target: {fileID: 6835712019717561730, guid: 3cb1140fdf2170247a0fc26b72421723,
        type: 3}
      propertyPath: m_RootOrder
      value: 0
      objectReference: {fileID: 0}
    - target: {fileID: 6835712019717561730, guid: 3cb1140fdf2170247a0fc26b72421723,
        type: 3}
      propertyPath: m_LocalEulerAnglesHint.x
      value: 0
      objectReference: {fileID: 0}
    - target: {fileID: 6835712019717561730, guid: 3cb1140fdf2170247a0fc26b72421723,
        type: 3}
      propertyPath: m_LocalEulerAnglesHint.y
      value: 0
      objectReference: {fileID: 0}
    - target: {fileID: 6835712019717561730, guid: 3cb1140fdf2170247a0fc26b72421723,
        type: 3}
      propertyPath: m_LocalEulerAnglesHint.z
      value: 0
      objectReference: {fileID: 0}
    - target: {fileID: 6835712019717561733, guid: 3cb1140fdf2170247a0fc26b72421723,
        type: 3}
      propertyPath: m_Name
      value: StateMap
      objectReference: {fileID: 0}
    m_RemovedComponents: []
  m_SourcePrefab: {fileID: 100100000, guid: 3cb1140fdf2170247a0fc26b72421723, type: 3}
--- !u!4 &8320251448627737361 stripped
Transform:
  m_CorrespondingSourceObject: {fileID: 6835712019717561730, guid: 3cb1140fdf2170247a0fc26b72421723,
    type: 3}
  m_PrefabInstance: {fileID: 3290490037115858579}
  m_PrefabAsset: {fileID: 0}
--- !u!82 &8320251448627737360 stripped
AudioSource:
  m_CorrespondingSourceObject: {fileID: 6835712019717561731, guid: 3cb1140fdf2170247a0fc26b72421723,
    type: 3}
  m_PrefabInstance: {fileID: 3290490037115858579}
  m_PrefabAsset: {fileID: 0}
--- !u!1 &8320251449686804053 stripped
GameObject:
  m_CorrespondingSourceObject: {fileID: 6835712018671102150, guid: 3cb1140fdf2170247a0fc26b72421723,
    type: 3}
  m_PrefabInstance: {fileID: 3290490037115858579}
  m_PrefabAsset: {fileID: 0}
