cards/card_00001;(2.350f,0.6f,0.000f)
cards/card_00002;(2.100f,0.6f,0.000f)
cards/card_00003;(1.850f,0.6f,0.000f)
cards/card_00004;(1.600f,0.6f,0.000f)
cards/card_00005;(1.350f,0.6f,0.000f)
cards/card_00006;(1.100f,0.6f,0.000f)
cards/card_00007;(0.850f,0.6f,0.000f)
cards/card_00008;(0.600f,0.6f,0.000f)
cards/card_00009;(0.350f,0.6f,0.000f)
cards/card_00010;(0.100f,0.6f,0.000f)
cards/card_00011;(-0.150f,0.6f,0.000f)
cards/card_00012;(-0.400f,0.6f,0.000f)
cards/card_00013;(-0.650f,0.6f,0.000f)
cards/card_00014;(-0.900f,0.6f,0.000f)
cards/card_00015;(-1.150f,0.6f,0.000f)
cards/card_00016;(-1.400f,0.6f,0.000f)
cards/card_00017;(-1.650f,0.6f,0.000f)
cards/card_00018;(-1.900f,0.6f,0.000f)
cards/card_00019;(-2.150f,0.6f,0.000f)
cards/card_00020;(-2.400f,0.6f,0.000f)
cards/card_00021;(2.600f,0.1f,0.000f)
cards/card_00022;(2.350f,0.1f,0.000f)
cards/card_00023;(2.100f,0.1f,0.000f)
cards/card_00024;(1.850f,0.1f,0.000f)
cards/card_00025;(1.600f,0.1f,0.000f)
cards/card_00026;(1.350f,0.1f,0.000f)
cards/card_00027;(1.100f,0.1f,0.000f)
cards/card_00028;(0.850f,0.1f,0.000f)
cards/card_00029;(0.600f,0.1f,0.000f)
cards/card_00030;(0.350f,0.1f,0.000f)
cards/card_00031;(0.100f,0.1f,0.000f)
cards/card_00032;(-0.150f,0.1f,0.000f)
cards/card_00033;(-0.400f,0.1f,0.000f)
cards/card_00034;(-0.650f,0.1f,0.000f)
cards/card_00035;(-0.900f,0.1f,0.000f)
cards/card_00036;(-1.150f,0.1f,0.000f)
cards/card_00037;(-1.400f,0.1f,0.000f)
cards/card_00038;(-1.650f,0.1f,0.000f)
cards/card_00039;(-1.900f,0.1f,0.000f)
cards/card_00040;(-2.150f,0.1f,0.000f)
cards/card_00041;(-2.400f,0.1f,0.000f)
cards/card_00042;(2.600f,-0.6f,0.000f)
cards/card_00043;(2.350f,-0.6f,0.000f)
cards/card_00044;(2.100f,-0.6f,0.000f)
cards/card_00045;(1.850f,-0.6f,0.000f)
cards/card_00046;(1.600f,-0.6f,0.000f)
cards/card_00047;(1.350f,-0.6f,0.000f)
cards/card_00048;(1.100f,-0.6f,0.000f)
cards/card_00049;(0.850f,-0.6f,0.000f)
cards/card_00050;(0.600f,-0.6f,0.000f)