utf8_1101162433811
utf8_1101162452170
utf8_1101162452686
utf8_1101162452967
utf8_1101162453186
utf8_1101162453420
utf8_1101162453655
utf8_1101162453889
utf8_1101162454123
utf8_1101162454389
utf8_1101162468686
utf8_1101162468967
utf8_1101162469201
utf8_1101162469467
utf8_1101162469717
utf8_1101162469951
utf8_1101162470201
utf8_1101162470451
utf8_1101162470717
utf8_1101162470951
utf8_1101162488139
utf8_1101162488420
utf8_1101162488733
utf8_1101162488967
utf8_1101162489201
utf8_1101162489451
utf8_1101162489686
utf8_1101162489920
utf8_1101162490186
utf8_1101162490436
utf8_1101162504873
utf8_1101162505139
utf8_1101162505451
utf8_1101162505686
utf8_1101162505920
utf8_1101162506170
utf8_1101162506405
utf8_1101162506670
utf8_1101162506905
utf8_1101162507155
utf8_1101162522623
utf8_1101162522889
utf8_1101162523123
utf8_1101162523405
utf8_1101162523701
utf8_1101162523936
utf8_1101162524217
utf8_1101162524451
utf8_1101162524686
utf8_1101162539108
utf8_1101162539420
utf8_1101162539655
utf8_1101162539889
utf8_1101162540123
utf8_1101162540358
utf8_1101162540623
utf8_1101162540858
utf8_1101162541092
utf8_1101162541326
utf8_1101162605515
utf8_1101162605749
utf8_1101162605999
utf8_1101162606233
utf8_1101162606483
utf8_1101162606718
utf8_1101162606983
utf8_1101162607218
utf8_1101162607468
utf8_1101162607702
utf8_1101162622218
utf8_1101162622499
utf8_1101162622734
utf8_1101162622968
utf8_1101162623203
utf8_1101162623437
utf8_1101162623703
utf8_1101162623937
utf8_1101162624171
utf8_1101162624406
utf8_1101162640781
utf8_1101162641047
utf8_1101162641281
utf8_1101162641516
utf8_1101162641766
utf8_1101162642047
utf8_1101162642281
utf8_1101162642656
utf8_1101162642891
utf8_1101162643125
utf8_1101162686673
utf8_1101162687032
utf8_1101162687439
utf8_1101162688423
utf8_1101162688673
utf8_1101162688970
utf8_1101162690611
utf8_1101162690861
utf8_1101162691111
utf8_1101162691376
utf8_1101162706939
utf8_1101162707205
utf8_1101162707486
utf8_1101162707799
utf8_1101162708033
utf8_1101162708267
utf8_1101162708502
utf8_1101162708736
utf8_1101162709002
utf8_1101162709236
utf8_1101162768659
utf8_1101162768925
utf8_1101162769191
utf8_1101162769488
utf8_1101162769722
utf8_1101162769956
utf8_1101162770191
utf8_1101162770425
utf8_1101162770691
utf8_1101162770925
utf8_1101162786644
utf8_1101162786926
utf8_1101162787191
utf8_1101162787426
utf8_1101162787676
utf8_1101162787910
utf8_1101162788176
utf8_1101162788441
utf8_1101162788676
utf8_1101162788910
utf8_1101162805067
utf8_1101162805535
utf8_1101162805926
utf8_1101162806317
utf8_1101162807895
utf8_1101162808317
utf8_1101162808754
utf8_1101162809176
utf8_1101162809567
utf8_1101162850912
utf8_1101162851927
utf8_1101162862584
utf8_1101162862771
utf8_1101162862990
utf8_1101162863256
utf8_1101162863490
utf8_1101162863724
utf8_1101162863959
utf8_1101162879115
utf8_1101162879397
utf8_1101162879631
utf8_1101162880756
utf8_1101162880990
utf8_1101162881272
utf8_1101162881506
utf8_1101162881756
utf8_1101162881990
utf8_1101162882225
utf8_1101162902397
utf8_1101162902663
utf8_1101162902913
utf8_1101162903147
utf8_1101162903381
utf8_1101162903647
utf8_1101162903881
utf8_1101162904116
utf8_1101162904350
utf8_1101162904553
utf8_1101162945882
utf8_1101162947866
utf8_1101162948101
utf8_1101162948382
utf8_1101162948616
utf8_1101162948851
utf8_1101162949132
utf8_1101162949366
utf8_1101162949663
utf8_1101162949913
utf8_1101162964241
utf8_1101162964538
utf8_1101162964773
utf8_1101162965023
utf8_1101162965273
utf8_1101162965507
utf8_1101162965773
utf8_1101162966023
utf8_1101162966273
utf8_1101162966523
utf8_1101162980929
utf8_1101162981210
utf8_1101162981445
utf8_1101162981695
utf8_1101162981960
utf8_1101162982195
utf8_1101162982429
utf8_1101162982664
utf8_1101162982898
utf8_1101162983132
utf8_1101163001054
utf8_1101163001336
utf8_1101163001554
utf8_1101163001789
utf8_1101163002039
utf8_1101163002304
utf8_1101163002539
utf8_1101163004320
utf8_1101163004554
utf8_1101163004789
utf8_1101163019133
utf8_1101163019383
utf8_1101163019617
utf8_1101163019852
utf8_1101163020102
utf8_1101163020336
utf8_1101163020570
utf8_1101163020836
utf8_1101163021070
utf8_1101163023617
utf8_1101163043586
utf8_1101163043821
utf8_1101163044055
utf8_1101163044289
utf8_1101163044539
utf8_1101163044805
utf8_1101163045071
utf8_1101163045305
utf8_1101163045539
utf8_1101163045774
utf8_1101163072008
utf8_1101163072274
utf8_1101163072508
utf8_1101163072805
utf8_1101163073040
utf8_1101163073508
utf8_1101163073743
utf8_1101163073977
utf8_1101163074212
utf8_1101163085368
utf8_1101163108478
utf8_1101163108759
utf8_1101163108993
utf8_1101163109228
utf8_1101163109462
utf8_1101163109696
utf8_1101163109962
utf8_1101163110196
utf8_1101163110431
utf8_1101163110696
utf8_1101163127181
utf8_1101163127447
utf8_1101163127681
utf8_1101163127915
utf8_1101163128181
utf8_1101163128415
utf8_1101163128665
utf8_1101163128915
utf8_1101163129181
utf8_1101163129415
utf8_1101163143744
utf8_1101163144025
utf8_1101163144291
utf8_1101163144541
utf8_1101163144775
utf8_1101163145009
utf8_1101163145259
utf8_1101163146322
utf8_1101163146588
utf8_1101163146822
utf8_1101163161228
utf8_1101163161541
utf8_1101163161775
utf8_1101163162010
utf8_1101163162244
utf8_1101163162478
utf8_1101163162713
utf8_1101163162978
utf8_1101163163213
utf8_1101163163447
utf8_1101163178463
utf8_1101163178760
utf8_1101163178994
utf8_1101163179229
utf8_1101163179463
utf8_1101163179697
utf8_1101163179932
utf8_1101163180197
utf8_1101163180447
utf8_1101163197104
utf8_1101163197385
utf8_1101163197619
utf8_1101163197854
utf8_1101163198088
utf8_1101163198369
utf8_1101163198604
utf8_1101163198838
utf8_1101163199525
utf8_1101163199760
utf8_1101163214197
utf8_1101163214479
utf8_1101163215025
utf8_1101163215291
utf8_1101163215525
utf8_1101163215807
utf8_1101163216322
utf8_1101163216557
utf8_1101163230979
utf8_1101163231244
utf8_1101163231479
utf8_1101163233666
utf8_1101163233900
utf8_1101163234135
utf8_1101163234416
utf8_1101163234650
utf8_1101163234885
utf8_1101163235119
utf8_1101163251369
utf8_1101163251635
utf8_1101163251916
utf8_1101163252150
utf8_1101163252385
utf8_1101163252650
utf8_1101163252885
utf8_1101163253119
utf8_1101163253354
utf8_1101163253588
utf8_1101163268260
utf8_1101163268541
utf8_1101163268775
utf8_1101163269150
utf8_1101163269416
utf8_1101163272650
utf8_1101163272885
utf8_1101163273119
utf8_1101163287775
utf8_1101163288057
utf8_1101163288338
utf8_1101163288572
utf8_1101163288807
utf8_1101163289088
utf8_1101163289322
utf8_1101163289557
utf8_1101163289807
utf8_1101163290072
utf8_1101163305947
utf8_1101163306213
utf8_1101163306447
utf8_1101163306947
utf8_1101163307182
utf8_1101163307791
utf8_1101163308025
utf8_1101163308260
utf8_1101163308494
utf8_1101163323072
utf8_1101163323385
utf8_1101163323572
utf8_1101163323807
utf8_1101163324041
utf8_1101163324557
utf8_1101163324807
utf8_1101163325041
utf8_1101163325275
utf8_1101163339885
utf8_1101163340119
utf8_1101163340400
utf8_1101163340635
utf8_1101163340900
utf8_1101163341150
utf8_1101163341385
utf8_1101163341619
utf8_1101163341854
utf8_1101163342119
utf8_1101163356447
utf8_1101163356450
utf8_1101163356713
utf8_1101163356947
utf8_1101163357229
utf8_1101163357463
utf8_1101163357697
utf8_1101163358291
utf8_1101163358525
utf8_1101163358760
utf8_1101163359025
utf8_1101163373432
utf8_1101163373682
utf8_1101163373916
utf8_1101163374150
utf8_1101163374650
utf8_1101163374885
utf8_1101163375119
utf8_1101163375354
utf8_1101163375588
utf8_1101163390072
utf8_1101163390354
utf8_1101163390588
utf8_1101163390822
utf8_1101163391104
utf8_1101163391338
utf8_1101163391572
utf8_1101163391807
utf8_1101163392150
utf8_1101163393385
utf8_1101163408135
utf8_1101163408369
utf8_1101163408635
utf8_1101163408869
utf8_1101163409104
utf8_1101163409338
utf8_1101163409838
utf8_1101163410072
utf8_1101163424510
utf8_1101163424838
utf8_1101163425104
utf8_1101163425338
utf8_1101163425572
utf8_1101163427463
utf8_1101163428635
utf8_1101163429135
utf8_1101163443494
utf8_1101163443760
utf8_1101163443994
utf8_1101163444463
utf8_1101163444697
utf8_1101163444963
utf8_1101163445197
utf8_1101163445432
utf8_1101163445666
utf8_1101163460588
utf8_1101163460854
utf8_1101163461088
utf8_1101163461322
utf8_1101163461572
utf8_1101163461838
utf8_1101163462072
utf8_1101163462307
utf8_1101163462557
utf8_1101163462791
utf8_1101163477338
utf8_1101163477635
utf8_1101163477932
utf8_1101163478229
utf8_1101163478463
utf8_1101163478729
utf8_1101163478963
utf8_1101163482416
utf8_1101163497088
utf8_1101163497416
utf8_1101163497666
utf8_1101163498744
utf8_1101163502400
utf8_1101163503619
utf8_1101163503854
utf8_1101163504088
utf8_1101163504322
utf8_1101163504557
utf8_1101163519041
utf8_1101163519307
utf8_1101163519541
utf8_1101163519775
utf8_1101163520010
utf8_1101163520244
utf8_1101163520510
utf8_1101163520744
utf8_1101163520979
utf8_1101163521213
utf8_1101163556525
utf8_1101163556822
utf8_1101163557057
utf8_1101163557291
utf8_1101163557525
utf8_1101163558369
utf8_1101163558635
utf8_1101163559104
utf8_1101163559338
utf8_1101163573713
utf8_1101163574010
utf8_1101163574307
utf8_1101163574541
utf8_1101163574775
utf8_1101163575072
utf8_1101163575307
utf8_1101163575541
utf8_1101163575775
utf8_1101163576010
utf8_1101163590416
utf8_1101163592729
utf8_1101163594760
utf8_1101163594994
utf8_1101163595229
utf8_1101163595494
utf8_1101163595729
utf8_1101163595994
utf8_1101163596229
utf8_1101163611869
utf8_1101163612135
utf8_1101163613557
utf8_1101163613791
utf8_1101163614026
utf8_1101163614291
utf8_1101163614526
utf8_1101163614760
utf8_1101163614994
utf8_1101163615244
utf8_1101163636385
utf8_1101163636667
utf8_1101163636901
utf8_1101163637135
utf8_1101163637401
utf8_1101163637713
utf8_1101163637917
utf8_1101163638401
utf8_1101163638635
utf8_1101163655339
utf8_1101163655636
utf8_1101163655870
utf8_1101163656104
utf8_1101163656339
utf8_1101163656573
utf8_1101163659667
utf8_1101163661589
utf8_1101163661823
utf8_1101163685386
utf8_1101163685620
utf8_1101163685855
utf8_1101163686136
utf8_1101163686370
utf8_1101163686605
utf8_1101163686839
utf8_1101163687073
utf8_1101163701792
utf8_1101163702074
utf8_1101163702308
utf8_1101163702542
utf8_1101163702824
utf8_1101163703058
utf8_1101163703292
utf8_1101163704527
utf8_1101163706824
utf8_1101163725871
utf8_1101163727918
utf8_1101163728152
utf8_1101163728636
utf8_1101163729136
utf8_1101163729371
utf8_1101163729840
utf8_1101163757902
utf8_1101163758137
utf8_1101163758387
utf8_1101163758652
utf8_1101163758902
utf8_1101163759184
utf8_1101163759465
utf8_1101163759699
utf8_1101163759934
utf8_1101163760168
utf8_1101163774840
utf8_1101163775075
utf8_1101163775309
utf8_1101163775543
utf8_1101163775825
utf8_1101163776059
utf8_1101163776325
utf8_1101163776559
utf8_1101163776793
utf8_1101163777028
utf8_1101163793294
utf8_1101163793559
utf8_1101163793856
utf8_1101163794106
utf8_1101163794340
utf8_1101163794622
utf8_1101163794887
utf8_1101163795122
utf8_1101163795356
utf8_1101163795590
utf8_1101163833669
utf8_1101163833935
utf8_1101163834169
utf8_1101163834403
utf8_1101163834638
utf8_1101163834872
utf8_1101163836200
utf8_1101163836435
utf8_1101163836669
utf8_1101163836903
utf8_1101163851247
utf8_1101163851513
utf8_1101163851779
utf8_1101163852029
utf8_1101163852388
utf8_1101163852685
utf8_1101163852951
utf8_1101163853185
utf8_1101163853419
utf8_1101163853654
utf8_1101163868294
utf8_1101163868560
utf8_1101163868841
utf8_1101163869076
utf8_1101163869310
utf8_1101163869544
utf8_1101163869810
utf8_1101163870045
utf8_1101163870279
utf8_1101163870513
utf8_1101163886904
utf8_1101163887201
utf8_1101163887435
utf8_1101163887717
utf8_1101163888138
utf8_1101163888435
utf8_1101163888701
utf8_1101163888935
utf8_1101163889170
utf8_1101163889404
utf8_1101163903826
utf8_1101163904092
utf8_1101163904326
utf8_1101163904561
utf8_1101163904795
utf8_1101163905029
utf8_1101163905264
utf8_1101163905529
utf8_1101163905764
utf8_1101163905998
utf8_1101163920951
utf8_1101163921248
utf8_1101163921545
utf8_1101163921779
utf8_1101163922014
utf8_1101163922264
utf8_1101163922529
utf8_1101163922764
utf8_1101163925232
utf8_1101163938951
utf8_1101163939201
utf8_1101163939436
utf8_1101163939670
utf8_1101163939920
utf8_1101163940154
utf8_1101163941010
utf8_1101163941011
utf8_1101163941012
utf8_1101163941013
utf8_1101163941014
utf8_1101163941015
utf8_1101163941016
utf8_1101163941017
utf8_1101163941018
utf8_1101163941019
utf8_1101163941020
utf8_1101163941021
utf8_1101163941022
utf8_1101163941023
utf8_1101163941024
utf8_1101163941025
utf8_1101163941026
utf8_1101163941027
utf8_1101163941028
utf8_1101163941029
utf8_1101163941030
utf8_1101163941031
utf8_1101163941032
utf8_1101163941033
utf8_1101163941034
utf8_1101163941035
utf8_1101163941036
utf8_1101163941037
utf8_1101163941038
utf8_1101163941039
utf8_1101163941040
utf8_1101163941041
utf8_1101163941042
utf8_1101163941043
utf8_1101163941044
utf8_1101163941045
utf8_1101163941046
utf8_1101163941047
utf8_1101163941048
utf8_1101163941049
utf8_1101163941050
utf8_1101163941051
utf8_1101163941052
utf8_1101163941053
utf8_1101163941054
utf8_1101163941055
utf8_1101163941056
utf8_1101163941057
utf8_1101163941058
utf8_1101163941059
utf8_1101163941060
utf8_1101163941061
utf8_1101163941062
utf8_1101163941063
utf8_1101163941064
utf8_1101163941065
utf8_1101163941066
utf8_1101163941067
utf8_1101163941068
utf8_1101163941069
utf8_1101163941070
utf8_1101163941071
utf8_1101163941072
utf8_1101163941073
utf8_1101163941074
utf8_1101163941075
utf8_1101163941076
utf8_1101163941077
utf8_1101163941078
utf8_1101163941079
utf8_1101163941080
utf8_1101163941081
utf8_1101163941082
utf8_1101163941083
utf8_1101163941084
utf8_1101163941085
utf8_1101163941086
utf8_1101163941087
utf8_1101163941088
utf8_1101163941089
utf8_1101163941090
utf8_1101163941091
utf8_1101163941092
utf8_1101163941093
utf8_1101163941094
utf8_1101163941095
utf8_1101163941096
utf8_1101163941097
utf8_1101163941098
utf8_1101163941099
utf8_1101163941100
utf8_1101163941101
utf8_1101163941102
utf8_1101163941103
utf8_1101163941104
utf8_1101163941105
utf8_1101163941106
utf8_1101163941107
utf8_1101163941108
utf8_1101163941109
utf8_1101163941110
utf8_1101163941111
utf8_1101163941112
utf8_1101163941113
utf8_1101163941114
utf8_1101163941115
utf8_1101163941116
utf8_1101163941117
utf8_1101163941118
utf8_1101163941119
utf8_1101163941120
utf8_1101163941121
utf8_1101163941122
utf8_1101163941123
utf8_1101163941124
utf8_1101163941125
utf8_1101163941126
utf8_1101163941127
utf8_1101163941128
utf8_1101163941129
utf8_1101163941130
utf8_1101163941131
utf8_1101163941132
utf8_1101163941133
utf8_1101163941134
utf8_1101163941135
utf8_1101163941136
utf8_1101163941137
utf8_1101163941138
utf8_1101163941139
utf8_1101163941140
utf8_1101163941141
utf8_1101163941142
utf8_1101163941143
utf8_1101163941144
utf8_1101163941145
utf8_1101163941146
utf8_1101163941147
utf8_1101163941148
utf8_1101163941149
utf8_1101163941150
utf8_1101163941151
utf8_1101163941152
utf8_1101163941153
utf8_1101163941154
utf8_1101163941155
utf8_1101163941156
utf8_1101163941157
utf8_1101163941158
utf8_1101163941159
utf8_1101163941160
utf8_1101163941161
utf8_1101163941162
utf8_1101163941163
utf8_1101163941164
utf8_1101163941165
utf8_1101163941166
utf8_1101163941167
utf8_1101163941168
utf8_1101163941169
utf8_1101242384148
utf8_1101242384461
utf8_1101242384726
utf8_1101242385007
utf8_1101242385289
utf8_1101242385523
utf8_1101242385820
utf8_1101242386054
utf8_1101242386320
utf8_1101242386554
utf8_1101242405914
utf8_1101242406226
utf8_1101242406461
utf8_1101242406742
utf8_1101242406976
utf8_1101242407492
utf8_1101242407742
utf8_1101242407976
utf8_1101242429133
utf8_1101242429430
utf8_1101242429898
utf8_1101242430180
utf8_1101242430414
utf8_1101242430883
utf8_1101242431383
utf8_1101242451430
utf8_1101242451711
utf8_1101242452180
utf8_1101242452461
utf8_1101242452711
utf8_1101242453320
utf8_1101242453570
utf8_1101242473477
utf8_1101242473711
utf8_1101242473945
utf8_1101242474461
utf8_1101242474695
utf8_1101242475414
utf8_1101242496242
utf8_1101242496477
utf8_1101242496711
utf8_1101242496946
utf8_1101242497211
utf8_1101242497446
utf8_1101242498164
utf8_1101242517805
utf8_1101242518040
utf8_1101242518555
utf8_1101242518821
utf8_1101242519055
utf8_1101242519290
utf8_1101242519790
utf8_1101242542321
utf8_1101242542555
utf8_1101242542790
utf8_1101242543258
utf8_1101242543493
utf8_1101242543758
utf8_1101242544227
utf8_1101242563493
utf8_1101242563790
utf8_1101242564305
utf8_1101242564821
utf8_1101242565571
utf8_1101242585446
utf8_1101242585681
utf8_1101242586149
utf8_1101242586384
utf8_1101242586665
utf8_1101242587149
utf8_1101242587399
utf8_1101242612790
utf8_1101242613071
utf8_1101242613353
utf8_1101242613821
utf8_1101242614103
utf8_1101242614337
utf8_1101242614571
utf8_1101242614806
utf8_1101242615040
utf8_1101242634462
utf8_1101242634728
utf8_1101242635212
utf8_1101242635447
utf8_1101242635978
utf8_1101242636197
utf8_1101242636431
utf8_1101242636712
utf8_1101242656103
utf8_1101242656384
utf8_1101242656634
utf8_1101242656900
utf8_1101242657134
utf8_1101242657369
utf8_1101242657619
utf8_1101242657853
utf8_1101242658119
utf8_1101242658353
utf8_1101242677650
utf8_1101242677931
utf8_1101242678228
utf8_1101242678462
utf8_1101242678712
utf8_1101242678947
utf8_1101242679416
utf8_1101242700338
utf8_1101242720775
utf8_1101242721291
utf8_1101242721760
utf8_1101242722744
utf8_1101242722978
utf8_1101242743385
utf8_1101242743650
utf8_1101242744682
utf8_1101242745182
utf8_1101242745682
utf8_1101242765510
utf8_1101242765979
utf8_1101242766213
utf8_1101242766447
utf8_1101242766682
utf8_1101242767400
utf8_1101242786744
utf8_1101242786963
utf8_1101242787244
utf8_1101242787494
utf8_1101242787729
utf8_1101242788244
utf8_1101242788947
utf8_1101242808401
utf8_1101242808698
utf8_1101242808932
utf8_1101242809166
utf8_1101242809401
utf8_1101242809682
utf8_1101242809916
utf8_1101242810369
utf8_1101242810619
utf8_1101242830682
utf8_1101242831682
utf8_1101242832932
utf8_1101242833151
utf8_1101242853979
utf8_1101242854448
utf8_1101242854917
utf8_1101242855417
utf8_1101242855932
utf8_1101242876245
utf8_1101242876479
utf8_1101242876714
utf8_1101242876979
utf8_1101242896917
utf8_1101242897151
utf8_1101242897667
utf8_1101242897901
utf8_1101242898151
utf8_1101242898417
utf8_1101242898651
utf8_1101242899120
utf8_1101242918339
utf8_1101242918886
utf8_1101242919120
utf8_1101242919823
utf8_1101242920089
utf8_1101242920323
utf8_1101242920558
utf8_1101242939886
utf8_1101242940152
utf8_1101242940948
utf8_1101242941183
utf8_1101242941448
utf8_1101242941683
utf8_1101242942511
utf8_1101242961808
utf8_1101242962074
utf8_1101242962308
utf8_1101242962792
utf8_1101242963058
utf8_1101242963292
utf8_1101242984652
utf8_1101242985121
utf8_1101242985339
utf8_1101242985855
utf8_1101242986089
utf8_1101242986324
utf8_1101242986558
utf8_1101243005964
utf8_1101243006199
utf8_1101243006433
utf8_1101243006668
utf8_1101243007136
utf8_1101243007402
utf8_1101243007636
utf8_1101243007918
utf8_1101243029230
utf8_1101243029527
utf8_1101243029762
utf8_1101243030012
utf8_1101243030246
utf8_1101243030730
utf8_1101243031215
utf8_1101243050855
utf8_1101243051355
utf8_1101243051605
utf8_1101243051840
utf8_1101243052340
utf8_1101243052574
utf8_1101243052809
utf8_1101243072590
utf8_1101243072871
utf8_1101243073106
utf8_1101243073340
utf8_1101243073559
utf8_1101243073809
utf8_1101243074309
utf8_1101243074777
utf8_1101243094512
utf8_1101243094981
utf8_1101243095965
utf8_1101243116293
utf8_1101243116559
utf8_1101243116793
utf8_1101243117246
utf8_1101243117496
utf8_1101243117731
utf8_1101243118231
utf8_1101243118512
utf8_1101243137918
utf8_1101243138543
utf8_1101243138731
utf8_1101243139934
utf8_1101243140168
utf8_1101243160012
utf8_1101243160247
utf8_1101243160465
utf8_1101243160715
utf8_1101243160965
utf8_1101243161481
utf8_1101243161950
utf8_1101243162184
utf8_1101243181966
utf8_1101243182966
utf8_1101243183231
utf8_1101243183466
utf8_1101243183934
utf8_1101243184169
utf8_1101243204075
utf8_1101243204606
utf8_1101243205091
utf8_1101243205591
utf8_1101243205825
utf8_1101243226622
utf8_1101243227372
utf8_1101243228107
utf8_1101243228341
utf8_1101243248294
utf8_1101243248560
utf8_1101243249044
utf8_1101243249263
utf8_1101243249513
utf8_1101243249779
utf8_1101243250013
utf8_1101243250247
utf8_1101243250482
utf8_1101243270310
utf8_1101243270826
utf8_1101243271326
utf8_1101243271654
utf8_1101243271888
utf8_1101243272122
utf8_1101243272357
utf8_1101243292123
utf8_1101243292404
utf8_1101243292638
utf8_1101243292873
utf8_1101243293654
utf8_1101243293888
utf8_1101243294123
utf8_1101243294357
utf8_1101243314341
utf8_1101243314654
utf8_1101243314904
utf8_1101243315123
utf8_1101243315373
utf8_1101243315607
utf8_1101243315873
utf8_1101243316576
utf8_1101243336217
utf8_1101243336748
utf8_1101243337060
utf8_1101243337295
utf8_1101243338029
utf8_1101243338264
utf8_1101243358045
utf8_1101243358264
utf8_1101243358514
utf8_1101243358748
utf8_1101243358982
utf8_1101243359217
utf8_1101243359482
utf8_1101243379764
utf8_1101243380029
utf8_1101243380264
utf8_1101243380483
utf8_1101243381248
utf8_1101243381483
utf8_1101243381717
utf8_1101243381951
utf8_1101243401326
utf8_1101243401545
utf8_1101243401795
utf8_1101243402030
utf8_1101243402264
utf8_1101243402498
utf8_1101243402764
utf8_1101243402983
utf8_1101243403233
utf8_1101243423217
utf8_1101243423452
utf8_1101243423748
utf8_1101243423983
utf8_1101243424217
utf8_1101243424483
utf8_1101243444577
utf8_1101243444842
utf8_1101243445311
utf8_1101243445780
utf8_1101243446045
utf8_1101243446514
utf8_1101243446764
utf8_1101243467858
utf8_1101243468092
utf8_1101243468811
utf8_1101243469077
utf8_1101243469311
utf8_1101243469546
utf8_1101243489343
utf8_1101243489577
utf8_1101243490046
utf8_1101243490296
utf8_1101243491046
utf8_1101243491280
utf8_1101243511077
utf8_1101243511327
utf8_1101243511561
utf8_1101243511796
utf8_1101243512030
utf8_1101243512311
utf8_1101243512780
utf8_1101243513015
utf8_1101243532358
utf8_1101243532593
utf8_1101243532843
utf8_1101243533077
utf8_1101243533312
utf8_1101243533593
utf8_1101243533827
utf8_1101243534062
utf8_1101243534343
utf8_1101243555624
utf8_1101243556046
utf8_1101243556468
utf8_1101243556874
utf8_1101243577468
utf8_1101243577859
