%YAML 1.1
%TAG !u! tag:unity3d.com,2011:
--- !u!1 &316945648979115795
GameObject:
  m_ObjectHideFlags: 0
  m_CorrespondingSourceObject: {fileID: 0}
  m_PrefabInstance: {fileID: 0}
  m_PrefabAsset: {fileID: 0}
  serializedVersion: 6
  m_Component:
  - component: {fileID: 8103589161386824210}
  - component: {fileID: 7952090476631102231}
  - component: {fileID: 5525429312315503978}
  m_Layer: 2
  m_Name: Camera
  m_TagString: Untagged
  m_Icon: {fileID: 0}
  m_NavMeshLayer: 0
  m_StaticEditorFlags: 0
  m_IsActive: 1
--- !u!4 &8103589161386824210
Transform:
  m_ObjectHideFlags: 0
  m_CorrespondingSourceObject: {fileID: 0}
  m_PrefabInstance: {fileID: 0}
  m_PrefabAsset: {fileID: 0}
  m_GameObject: {fileID: 316945648979115795}
  m_LocalRotation: {x: 0, y: 0, z: 0, w: 1}
  m_LocalPosition: {x: 0, y: 0, z: 0}
  m_LocalScale: {x: 1, y: 1, z: 1}
  m_Children: []
  m_Father: {fileID: 6736114846858431135}
  m_RootOrder: 1
  m_LocalEulerAnglesHint: {x: 0, y: 0, z: 0}
--- !u!20 &7952090476631102231
Camera:
  m_ObjectHideFlags: 0
  m_CorrespondingSourceObject: {fileID: 0}
  m_PrefabInstance: {fileID: 0}
  m_PrefabAsset: {fileID: 0}
  m_GameObject: {fileID: 316945648979115795}
  m_Enabled: 1
  serializedVersion: 2
  m_ClearFlags: 2
  m_BackGroundColor: {r: 0.16131186, g: 0.19029856, b: 0.23584908, a: 0}
  m_projectionMatrixMode: 1
  m_SensorSize: {x: 36, y: 24}
  m_LensShift: {x: 0, y: 0}
  m_GateFitMode: 2
  m_FocalLength: 50
  m_NormalizedViewPortRect:
    serializedVersion: 2
    x: 0
    y: 0
    width: 1
    height: 1
  near clip plane: 0.3
  far clip plane: 1000
  field of view: 60
  orthographic: 0
  orthographic size: 5
  m_Depth: 0
  m_CullingMask:
    serializedVersion: 2
    m_Bits: 4294967295
  m_RenderingPath: -1
  m_TargetTexture: {fileID: 0}
  m_TargetDisplay: 0
  m_TargetEye: 3
  m_HDR: 1
  m_AllowMSAA: 1
  m_AllowDynamicResolution: 0
  m_ForceIntoRT: 0
  m_OcclusionCulling: 1
  m_StereoConvergence: 10
  m_StereoSeparation: 0.022
--- !u!81 &5525429312315503978
AudioListener:
  m_ObjectHideFlags: 0
  m_CorrespondingSourceObject: {fileID: 0}
  m_PrefabInstance: {fileID: 0}
  m_PrefabAsset: {fileID: 0}
  m_GameObject: {fileID: 316945648979115795}
  m_Enabled: 1
--- !u!1001 &6991572150738046669
PrefabInstance:
  m_ObjectHideFlags: 0
  serializedVersion: 2
  m_Modification:
    m_TransformParent: {fileID: 0}
    m_Modifications:
    - target: {fileID: 114508348247128266, guid: a942672b3a6bc734c98ea1128d35a64d,
        type: 3}
      propertyPath: m_AssetId.i0
      value: 0
      objectReference: {fileID: 0}
    - target: {fileID: 114508348247128266, guid: a942672b3a6bc734c98ea1128d35a64d,
        type: 3}
      propertyPath: m_AssetId.i1
      value: 0
      objectReference: {fileID: 0}
    - target: {fileID: 114508348247128266, guid: a942672b3a6bc734c98ea1128d35a64d,
        type: 3}
      propertyPath: m_AssetId.i2
      value: 0
      objectReference: {fileID: 0}
    - target: {fileID: 114508348247128266, guid: a942672b3a6bc734c98ea1128d35a64d,
        type: 3}
      propertyPath: m_AssetId.i3
      value: 0
      objectReference: {fileID: 0}
    - target: {fileID: 114508348247128266, guid: a942672b3a6bc734c98ea1128d35a64d,
        type: 3}
      propertyPath: m_AssetId.i4
      value: 0
      objectReference: {fileID: 0}
    - target: {fileID: 114508348247128266, guid: a942672b3a6bc734c98ea1128d35a64d,
        type: 3}
      propertyPath: m_AssetId.i5
      value: 0
      objectReference: {fileID: 0}
    - target: {fileID: 114508348247128266, guid: a942672b3a6bc734c98ea1128d35a64d,
        type: 3}
      propertyPath: m_AssetId.i6
      value: 0
      objectReference: {fileID: 0}
    - target: {fileID: 114508348247128266, guid: a942672b3a6bc734c98ea1128d35a64d,
        type: 3}
      propertyPath: m_AssetId.i7
      value: 0
      objectReference: {fileID: 0}
    - target: {fileID: 114508348247128266, guid: a942672b3a6bc734c98ea1128d35a64d,
        type: 3}
      propertyPath: m_AssetId.i8
      value: 0
      objectReference: {fileID: 0}
    - target: {fileID: 114508348247128266, guid: a942672b3a6bc734c98ea1128d35a64d,
        type: 3}
      propertyPath: m_AssetId.i9
      value: 0
      objectReference: {fileID: 0}
    - target: {fileID: 114508348247128266, guid: a942672b3a6bc734c98ea1128d35a64d,
        type: 3}
      propertyPath: m_AssetId.i10
      value: 0
      objectReference: {fileID: 0}
    - target: {fileID: 114508348247128266, guid: a942672b3a6bc734c98ea1128d35a64d,
        type: 3}
      propertyPath: m_AssetId.i11
      value: 0
      objectReference: {fileID: 0}
    - target: {fileID: 114508348247128266, guid: a942672b3a6bc734c98ea1128d35a64d,
        type: 3}
      propertyPath: m_AssetId.i12
      value: 0
      objectReference: {fileID: 0}
    - target: {fileID: 114508348247128266, guid: a942672b3a6bc734c98ea1128d35a64d,
        type: 3}
      propertyPath: m_AssetId.i13
      value: 0
      objectReference: {fileID: 0}
    - target: {fileID: 114508348247128266, guid: a942672b3a6bc734c98ea1128d35a64d,
        type: 3}
      propertyPath: m_AssetId.i14
      value: 0
      objectReference: {fileID: 0}
    - target: {fileID: 114508348247128266, guid: a942672b3a6bc734c98ea1128d35a64d,
        type: 3}
      propertyPath: m_AssetId.i15
      value: 0
      objectReference: {fileID: 0}
    - target: {fileID: 4358482885258904658, guid: a942672b3a6bc734c98ea1128d35a64d,
        type: 3}
      propertyPath: m_LocalPosition.x
      value: 0
      objectReference: {fileID: 0}
    - target: {fileID: 4358482885258904658, guid: a942672b3a6bc734c98ea1128d35a64d,
        type: 3}
      propertyPath: m_LocalPosition.y
      value: 0
      objectReference: {fileID: 0}
    - target: {fileID: 4358482885258904658, guid: a942672b3a6bc734c98ea1128d35a64d,
        type: 3}
      propertyPath: m_LocalPosition.z
      value: 0
      objectReference: {fileID: 0}
    - target: {fileID: 4358482885258904658, guid: a942672b3a6bc734c98ea1128d35a64d,
        type: 3}
      propertyPath: m_LocalRotation.x
      value: 0
      objectReference: {fileID: 0}
    - target: {fileID: 4358482885258904658, guid: a942672b3a6bc734c98ea1128d35a64d,
        type: 3}
      propertyPath: m_LocalRotation.y
      value: 0
      objectReference: {fileID: 0}
    - target: {fileID: 4358482885258904658, guid: a942672b3a6bc734c98ea1128d35a64d,
        type: 3}
      propertyPath: m_LocalRotation.z
      value: 0
      objectReference: {fileID: 0}
    - target: {fileID: 4358482885258904658, guid: a942672b3a6bc734c98ea1128d35a64d,
        type: 3}
      propertyPath: m_LocalRotation.w
      value: 1
      objectReference: {fileID: 0}
    - target: {fileID: 4358482885258904658, guid: a942672b3a6bc734c98ea1128d35a64d,
        type: 3}
      propertyPath: m_RootOrder
      value: 0
      objectReference: {fileID: 0}
    - target: {fileID: 4358482885258904658, guid: a942672b3a6bc734c98ea1128d35a64d,
        type: 3}
      propertyPath: m_LocalEulerAnglesHint.x
      value: 0
      objectReference: {fileID: 0}
    - target: {fileID: 4358482885258904658, guid: a942672b3a6bc734c98ea1128d35a64d,
        type: 3}
      propertyPath: m_LocalEulerAnglesHint.y
      value: 0
      objectReference: {fileID: 0}
    - target: {fileID: 4358482885258904658, guid: a942672b3a6bc734c98ea1128d35a64d,
        type: 3}
      propertyPath: m_LocalEulerAnglesHint.z
      value: 0
      objectReference: {fileID: 0}
    - target: {fileID: 4358482885258904662, guid: a942672b3a6bc734c98ea1128d35a64d,
        type: 3}
      propertyPath: m_Name
      value: ReplayPerson
      objectReference: {fileID: 0}
    m_RemovedComponents: []
  m_SourcePrefab: {fileID: 100100000, guid: a942672b3a6bc734c98ea1128d35a64d, type: 3}
--- !u!4 &6736114846858431135 stripped
Transform:
  m_CorrespondingSourceObject: {fileID: 4358482885258904658, guid: a942672b3a6bc734c98ea1128d35a64d,
    type: 3}
  m_PrefabInstance: {fileID: 6991572150738046669}
  m_PrefabAsset: {fileID: 0}
