training/card_00001;(-2.775f,0.600f,0.000f)	
training/card_00002;(-2.450f,0.600f,0.000f)	
training/card_00003;(-2.125f,0.600f,0.000f)	
training/card_00004;(-1.800f,0.600f,0.000f)	
training/card_00005;(-1.475f,0.600f,0.000f)	
training/card_00006;(-1.150f,0.600f,0.000f)	
training/card_00007;(-0.825f,0.600f,0.000f)	
training/card_00008;(-0.500f,0.600f,0.000f)	
training/card_00009;(-0.175f,0.600f,0.000f)	
training/card_00011;(0.150f,0.600f,0.000f)	
training/card_00012;(0.475f,0.600f,0.000f)	
training/card_00013;(0.800f,0.600f,0.000f)	
training/card_00014;(1.125f,0.600f,0.000f)	
training/card_00015;(1.450f,0.600f,0.000f)	
training/card_00016;(1.775f,0.600f,0.000f)	
training/card_00017;(2.100f,0.600f,0.000f)	
training/card_00018;(2.425f,0.600f,0.000f)	
training/card_00019;(2.750f,0.600f,0.000f)	
training/card_00021;(-2.775f,0.000f,0.000f)	
training/card_00022;(-2.450f,0.000f,0.000f)	
training/card_00023;(-2.125f,0.000f,0.000f)	
training/card_00010;(-1.800f,0.000f,0.000f)	
training/card_00020;(-1.475f,0.000f,0.000f)	
training/card_00026;(-1.150f,0.000f,0.000f)	
training/card_00027;(-0.825f,0.000f,0.000f)	
training/card_00028;(-0.500f,0.000f,0.000f)	
training/card_00029;(-0.175f,0.000f,0.000f)	
training/card_00031;(0.150f,0.000f,0.000f)	
training/card_00030;(0.475f,0.000f,0.000f)	
training/card_00033;(0.800f,0.000f,0.000f)	
training/card_00034;(1.125f,0.000f,0.000f)	
training/card_00035;(1.450f,0.000f,0.000f)	
training/card_00036;(1.775f,0.000f,0.000f)	
training/card_00037;(2.100f,0.000f,0.000f)	
training/card_00038;(2.425f,0.000f,0.000f)	
training/card_00039;(2.750f,0.000f,0.000f)	
training/card_00041;(-2.775f,-0.600f,0.000f)	
training/card_00042;(-2.450f,-0.600f,0.000f)	
training/card_00043;(-2.125f,-0.600f,0.000f)	
training/card_00044;(-1.800f,-0.600f,0.000f)	
training/card_00040;(-1.475f,-0.600f,0.000f)
training/card_00046;(-1.150f,-0.600f,0.000f)
training/card_00047;(-0.825f,-0.600f,0.000f)
training/card_00048;(-0.500f,-0.600f,0.000f)
training/card_00049;(-0.175f,-0.600f,0.000f)
training/card_00051;(0.150f,-0.600f,0.000f)	
training/card_00052;(0.475f,-0.600f,0.000f)	
training/card_00053;(0.800f,-0.600f,0.000f)	
training/card_00054;(1.125f,-0.600f,0.000f)	
training/card_00055;(1.450f,-0.600f,0.000f)	
training/card_00056;(1.775f,-0.600f,0.000f)	
training/card_00057;(2.100f,-0.600f,0.000f)	
training/card_00058;(2.425f,-0.600f,0.000f)	
training/card_00059;(2.750f,-0.600f,0.000f)	