116 61.5335 Move 
116 70.55457 Move 
116 86.94123 Move 
116 89.88334 Move 
116 92.89613 Move 
116 128.0889 Move 
116 138.7841 Move 
116 152.92 Move 
116 167.9667 Move 
116 170.8157 Select
116 176.9906 Move 
116 185.0378 Select
116 186.3351 Select
116 188.7389 Select
116 189.8845 Select
116 191.7368 Select
116 193.4444 Select
116 194.0366 Select
116 194.8919 Select
116 195.8921 Select
116 196.2366 Select
116 198.6829 Select
116 199.6872 Select
116 201.2932 Select
116 203.2666 Select
116 204.3346 Select
116 204.453 Select
116 205.8166 Select
116 207.5208 Select
116 208.2284 Select
116 209.9891 BatchMoveSelection
116 224.0347 Move 
116 227.2909 Move 
116 230.6275 Move 
116 233.2375 Move 
116 234.4587 Move 
116 235.5685 Move 
116 240.7871 Move 
116 244.5594 Move 
116 246.334 Move 
116 247.8943 Select
116 248.9471 Move 
116 258.0725 Move 
116 260.3073 Move 
116 271.6208 Move 
116 300.9497 Move 
116 306.5842 Move 
116 308.9638 Select
116 308.9902 Select
116 309.5578 Select
116 310.016 Select
116 310.5463 Select
116 310.7712 Select
116 312.5887 BatchMoveSelection
116 318.2896 Select
116 318.3449 Select
116 318.7662 Select
116 319.1761 Select
116 320.3432 Select
116 320.5751 Select
116 320.6444 Select
116 320.8112 Select
116 322.7718 BatchMoveSelection
116 325.9532 Move 
116 334.7657 Move 
116 338.8941 Select
116 341.7708 Select
116 344.0005 Select
116 345.0379 Select
116 346.0409 BatchMoveSelection
116 350.5753 Select
116 351.8009 BatchMoveSelection
116 356.6064 Select
116 356.6344 Select
116 356.9523 Select
116 358.0452 BatchMoveSelection
116 360.54 Move 
116 364.2503 Select
116 364.7932 Select
116 365.2802 Select
116 365.9067 Select
116 366.5235 Select
116 392.0462 Move 
116 398.6479 Select
116 407.229 Move 
116 434.9375 Move 
116 446.9101 Move 
116 448.3132 Select
116 449.586 Move 
116 454.6403 Move 
116 461.213 Move 
116 480.5162 Move 
116 484.666 Move 
116 488.8371 Select
116 489.0537 Select
116 489.7784 Select
116 489.8342 Select
116 489.9547 Select
116 489.9864 Select
116 490.3801 Select
116 490.4971 Select
116 492.7982 BatchMoveSelection
116 496.6992 Select
116 498.9441 Select
116 499.2459 Select
116 500.3138 Select
116 501.9567 BatchMoveSelection
116 504.5424 Move 
116 506.6446 Move 
116 508.5136 Select
116 510.865 BatchMoveSelection
116 513.639 Select
116 514.4544 BatchMoveSelection
116 519.5121 Move 
116 521.6335 Move 
116 560.7918 Move 
116 565.429 Move 
116 574.3856 Move 
116 578.0622 Move 
116 581.123 Move 
116 614.3743 Move 
116 616.2697 Move 
116 619.7698 Move 
116 623.3336 Move 
116 630.5435 Move 
116 636.7347 Move 
116 639.2608 Move 
116 697.5189 Select

116 61.5335 Move 
116 70.55457 Move 
116 86.94123 Move 
116 89.88334 Move 
116 92.89613 Move 
116 128.0889 Move 
116 138.7841 Move 
116 152.92 Move 
116 167.9667 Move 
116 170.8157 Select
116 176.9906 Move 
116 185.0378 Select
116 186.3351 Select
116 188.7389 Select
116 189.8845 Select
116 191.7368 Select
116 193.4444 Select
116 194.0366 Select
116 194.8919 Select
116 195.8921 Select
116 196.2366 Select
116 198.6829 Select
116 199.6872 Select
116 201.2932 Select
116 203.2666 Select
116 204.3346 Select
116 204.453 Select
116 205.8166 Select
116 207.5208 Select
116 208.2284 Select
116 209.9891 BatchMoveSelection
116 224.0347 Move 
116 227.2909 Move 
116 230.6275 Move 
116 233.2375 Move 
116 234.4587 Move 
116 235.5685 Move 
116 240.7871 Move 
116 244.5594 Move 
116 246.334 Move 
116 247.8943 Select
116 248.9471 Move 
116 258.0725 Move 
116 260.3073 Move 
116 271.6208 Move 
116 300.9497 Move 
116 306.5842 Move 
116 308.9638 Select
116 308.9902 Select
116 309.5578 Select
116 310.016 Select
116 310.5463 Select
116 310.7712 Select
116 312.5887 BatchMoveSelection
116 318.2896 Select
116 318.3449 Select
116 318.7662 Select
116 319.1761 Select
116 320.3432 Select
116 320.5751 Select
116 320.6444 Select
116 320.8112 Select
116 322.7718 BatchMoveSelection
116 325.9532 Move 
116 334.7657 Move 
116 338.8941 Select
116 341.7708 Select
116 344.0005 Select
116 345.0379 Select
116 346.0409 BatchMoveSelection
116 350.5753 Select
116 351.8009 BatchMoveSelection
116 356.6064 Select
116 356.6344 Select
116 356.9523 Select
116 358.0452 BatchMoveSelection
116 360.54 Move 
116 364.2503 Select
116 364.7932 Select
116 365.2802 Select
116 365.9067 Select
116 366.5235 Select
116 392.0462 Move 
116 398.6479 Select
116 407.229 Move 
116 434.9375 Move 
116 446.9101 Move 
116 448.3132 Select
116 449.586 Move 
116 454.6403 Move 
116 461.213 Move 
116 480.5162 Move 
116 484.666 Move 
116 488.8371 Select
116 489.0537 Select
116 489.7784 Select
116 489.8342 Select
116 489.9547 Select
116 489.9864 Select
116 490.3801 Select
116 490.4971 Select
116 492.7982 BatchMoveSelection
116 496.6992 Select
116 498.9441 Select
116 499.2459 Select
116 500.3138 Select
116 501.9567 BatchMoveSelection
116 504.5424 Move 
116 506.6446 Move 
116 508.5136 Select
116 510.865 BatchMoveSelection
116 513.639 Select
116 514.4544 BatchMoveSelection
116 519.5121 Move 
116 521.6335 Move 
116 560.7918 Move 
116 565.429 Move 
116 574.3856 Move 
116 578.0622 Move 
116 581.123 Move 
116 614.3743 Move 
116 616.2697 Move 
116 619.7698 Move 
116 623.3336 Move 
116 630.5435 Move 
116 636.7347 Move 
116 639.2608 Move 
116 697.5189 Select

116 61.5335 Move 
116 70.55457 Move 
116 86.94123 Move 
116 89.88334 Move 
116 92.89613 Move 
116 128.0889 Move 
116 138.7841 Move 
116 152.92 Move 
116 167.9667 Move 
116 170.8157 Select
116 176.9906 Move 
116 185.0378 Select
116 186.3351 Select
116 188.7389 Select
116 189.8845 Select
116 191.7368 Select
116 193.4444 Select
116 194.0366 Select
116 194.8919 Select
116 195.8921 Select
116 196.2366 Select
116 198.6829 Select
116 199.6872 Select
116 201.2932 Select
116 203.2666 Select
116 204.3346 Select
116 204.453 Select
116 205.8166 Select
116 207.5208 Select
116 208.2284 Select
116 209.9891 BatchMoveSelection
116 224.0347 Move 
116 227.2909 Move 
116 230.6275 Move 
116 233.2375 Move 
116 234.4587 Move 
116 235.5685 Move 
116 240.7871 Move 
116 244.5594 Move 
116 246.334 Move 
116 247.8943 Select
116 248.9471 Move 
116 258.0725 Move 
116 260.3073 Move 
116 271.6208 Move 
116 300.9497 Move 
116 306.5842 Move 
116 308.9638 Select
116 308.9902 Select
116 309.5578 Select
116 310.016 Select
116 310.5463 Select
116 310.7712 Select
116 312.5887 BatchMoveSelection
116 318.2896 Select
116 318.3449 Select
116 318.7662 Select
116 319.1761 Select
116 320.3432 Select
116 320.5751 Select
116 320.6444 Select
116 320.8112 Select
116 322.7718 BatchMoveSelection
116 325.9532 Move 
116 334.7657 Move 
116 338.8941 Select
116 341.7708 Select
116 344.0005 Select
116 345.0379 Select
116 346.0409 BatchMoveSelection
116 350.5753 Select
116 351.8009 BatchMoveSelection
116 356.6064 Select
116 356.6344 Select
116 356.9523 Select
116 358.0452 BatchMoveSelection
116 360.54 Move 
116 364.2503 Select
116 364.7932 Select
116 365.2802 Select
116 365.9067 Select
116 366.5235 Select
116 392.0462 Move 
116 398.6479 Select
116 407.229 Move 
116 434.9375 Move 
116 446.9101 Move 
116 448.3132 Select
116 449.586 Move 
116 454.6403 Move 
116 461.213 Move 
116 480.5162 Move 
116 484.666 Move 
116 488.8371 Select
116 489.0537 Select
116 489.7784 Select
116 489.8342 Select
116 489.9547 Select
116 489.9864 Select
116 490.3801 Select
116 490.4971 Select
116 492.7982 BatchMoveSelection
116 496.6992 Select
116 498.9441 Select
116 499.2459 Select
116 500.3138 Select
116 501.9567 BatchMoveSelection
116 504.5424 Move 
116 506.6446 Move 
116 508.5136 Select
116 510.865 BatchMoveSelection
116 513.639 Select
116 514.4544 BatchMoveSelection
116 519.5121 Move 
116 521.6335 Move 
116 560.7918 Move 
116 565.429 Move 
116 574.3856 Move 
116 578.0622 Move 
116 581.123 Move 
116 614.3743 Move 
116 616.2697 Move 
116 619.7698 Move 
116 623.3336 Move 
116 630.5435 Move 
116 636.7347 Move 
116 639.2608 Move 
116 697.5189 Select

