180 104.6521 Select
180 105.0382 Select
180 105.2788 Select
180 105.5544 Select
180 106.1192 Select
180 106.5933 Select
180 106.9962 Select
180 107.4862 Select
180 107.5988 Select
180 107.9465 Select
180 108.2674 Select
180 108.872 Select
180 109.1477 Select
180 109.3369 Select
180 109.5995 Select
180 109.8564 Select
180 110.2207 Select
180 112.0893 BatchMoveSelection
180 118.8034 Move 
180 122.956 Move 
180 128.6875 Move 
180 139.7431 Move 
180 145.2447 Select
180 145.3832 Select
180 145.7695 Select
180 149.6631 Move 
180 161.4148 Move 
180 204.505 Move 
180 209.3782 Move 
180 211.7011 Move 
180 217.8796 Move 
180 223.419 Move 
180 224.8051 Move 
180 347.5583 Move 
180 349.4835 Select
180 349.5145 Select
180 349.6952 Select
180 349.9899 Select
180 350.022 Select
180 350.2413 Select
180 350.3615 Select
180 350.5633 Select
180 350.8207 Select
180 350.9597 Select
180 351.0298 Select
180 351.2076 Select
180 351.6837 Select
180 351.7716 Select
180 352.9462 BatchMoveSelection
180 355.5812 Move 
180 357.6655 Select
180 358.775 BatchMoveSelection
180 360.2798 Move 
180 361.8496 Move 
180 363.2382 Move 
180 365.5042 Move 
180 372.2114 Move 
180 380.1672 Move 
180 389.2068 Move 
180 403.644 Move 
180 405.2638 Move 
180 414.6498 Move 
180 427.982 Move 
180 432.3569 Move 
180 464.4881 Move 
180 469.418 Move 
180 474.5317 Move 
180 475.9704 Move 
180 478.0644 Move 
180 491.2932 Move 
180 492.8454 Move 
180 495.1455 Move 
180 497.9474 Move 
180 509.1017 Move 
180 510.1407 Select
180 518.5163 Move 
180 528.0193 Move 
180 547.5211 BatchMoveSelection
180 549.0956 Move 
180 552.4688 Move 
180 554.3501 Move 
180 556.9533 Move 
180 559.8512 Move 
180 573.5629 Move 
180 580.0668 Move 
180 588.2982 Move 
180 602.2205 Move 
180 607.7838 Move 
180 619.2049 Select
180 619.4078 Select
180 619.5654 Select
180 619.7294 Select
180 619.761 Select
180 619.9227 Select
180 620.0175 Select
180 620.0517 Select
180 620.2178 Select
180 621.7286 BatchMoveSelection
180 624.3393 Move 
180 627.5945 Move 

