116 103.4161 Select
116 104.2456 BatchMoveSelection
116 110.2258 Move 
116 113.1066 Move 
116 116.5482 Move 
116 119.5893 Move 
116 127.6619 Move 
116 134.521 Move 
116 147.1653 Move 
116 159.5632 Move 
116 164.9276 Select
116 165.0487 Select
116 165.2399 Select
116 165.391 Select
116 165.7312 Select
116 166.8723 BatchMoveSelection
116 182.1222 Select
116 182.1701 Select
116 183.8142 BatchMoveSelection
116 194.0515 Move 
116 196.2815 Move 
116 202.6605 Move 
116 204.5721 Move 
116 206.1092 Move 
116 231.843 Move 
116 247.0512 Move 
116 251.7117 Move 
116 257.3112 Move 
116 259.5348 Move 
116 262.9428 Move 
116 267.4634 Move 
116 281.8167 Select
116 289.9867 Select
116 292.0418 Select
116 320.6904 Select
116 333.2492 Select
116 334.8105 BatchMoveSelection
116 345.5043 Move 
116 357.5199 Move 
116 362.7328 Move 
116 367.1021 Move 
116 381.848 Move 
116 392.3572 Select
116 411.3587 Select
116 484.4573 Move 
116 492.2937 Move 
116 509.342 Select
116 509.6742 Select
116 510.1342 Select
116 510.3024 Select
116 510.7998 Select
116 510.8399 Select
116 511.2283 Select
116 511.9146 Select
116 513.3491 BatchMoveSelection
116 545.0876 Move 
116 549.047 Move 
116 553.9174 Move 
116 556.2525 Move 
116 567.6954 Move 
116 572.5346 Move 
116 589.3254 Move 
116 609.2985 Select
116 609.5327 Select
116 609.5665 Select
116 609.6335 Select
116 609.733 Select
116 611.2952 Move 
116 613.7308 BatchMoveSelection
116 616.994 Select
116 617.5377 Select
116 617.9541 Select
116 618.2748 Select
116 618.8266 Select
116 619.3507 Select
116 619.9397 Select
116 620.1241 Select
116 621.7157 BatchMoveSelection
116 626.0331 Move 

