116 56.30816 Select
116 62.60445 Select
116 65.87426 BatchMoveSelection
116 73.24156 Select
116 78.47442 BatchMoveSelection
116 97.65073 Move 
116 104.415 Select
116 104.4708 Select
116 105.7513 BatchMoveSelection
116 110.818 Move 
116 114.4008 Move 
116 168.3627 Select
116 168.989 BatchMoveSelection
116 179.2945 Move 
116 194.6227 Select
116 195.6368 BatchMoveSelection
116 204.2992 Move 
116 259.4925 Move 
116 263.1624 Move 
116 291.4801 Move 
116 293.3962 Move 
116 304.5662 Move 
116 405.4297 Move 
116 407.5132 Move 
116 410.8255 Move 
116 415.4243 Move 
116 446.5534 Move 
116 464.7413 Select
116 466.3973 BatchMoveSelection
116 483.2004 Move 
116 496.2754 Move 

