116 108.1113 Select
116 109.2492 Select
116 112.4705 Select
116 113.1586 Select
116 116.5611 Select
116 117.0347 Select
116 117.9184 Select
116 119.0807 BatchMoveSelection
116 192.2461 CreateWindow 
116 205.3104 Select
116 209.1716 Select
116 211.1346 Select
116 213.4541 Select
116 214.3184 BatchMoveSelection
116 222.7085 Select
116 235.3903 BatchMoveSelection
116 244.0717 Move 
116 254.5528 Select
116 264.6495 BatchMoveSelection
116 277.5269 Select
116 282.6311 Select
116 284.2288 Select
116 286.6897 Move 
116 293.6617 Relayout 
116 326.4285 Select
116 335.9449 Select
116 343.486 Select
116 412.9742 Move 
116 426.1379 Move 
116 437.7603 Select
116 439.0056 Move 
116 445.7702 BatchMoveSelection
116 450.1323 Move 
116 455.4428 Move 
116 457.1946 Move 
116 469.4506 Select
116 473.9058 BatchMoveSelection
116 479.937 Move 
116 488.5703 Move 
116 497.3985 Move 
116 501.041 Move 
116 528.384 Move 
116 533.7089 Move 
116 550.7007 Move 
116 554.1596 Move 
116 558.0692 Select
116 559.2931 Select
116 562.8729 Move 
116 605.5773 Move 
116 608.85 Move 
116 619.4105 Move 
116 632.5485 Select

