180 140.1778 Select
180 140.8559 Select
180 146.8043 BatchMoveSelection
180 158.5022 Move 
180 166.3185 Move 
180 177.9352 Move 
180 181.9786 Select
180 182.864 BatchMoveSelection
180 186.1284 Select
180 187.4951 BatchMoveSelection
180 190.2811 Select
180 191.0812 BatchMoveSelection
180 195.4408 Select
180 196.166 BatchMoveSelection
180 201.6887 Select
180 202.7176 BatchMoveSelection
180 207.8537 Select
180 209.419 Select
180 212.305 Select
180 213.0213 BatchMoveSelection
180 218.6091 Select
180 219.3213 Select
180 222.107 BatchMoveSelection
180 228.0227 Move 
180 237.5453 Move 
180 243.6847 Move 
180 247.2321 Move 
180 249.1458 Move 
180 254.5247 Move 
180 259.457 Move 
180 263.3429 Move 
180 267.193 Move 
180 274.3437 Move 
180 277.8925 Move 
180 282.0482 Move 
180 289.5058 Move 
180 293.6334 Move 
180 299.1781 Move 
180 300.9348 Move 
180 306.2451 Move 
180 314.5074 Move 
180 317.7198 Select
180 317.7961 Select
180 318.187 Select
180 319.2635 BatchMoveSelection
180 321.6487 Move 
180 329.7476 Move 
180 334.235 Move 
180 355.6211 Select
180 357.5456 Select
180 359.4142 Select
180 362.9835 Select
180 428.8652 BatchMoveSelection
180 446.1668 Move 
180 450.4216 Move 
180 453.8737 Move 
180 477.7784 Move 

